<svg width="542" height="176" viewBox="0 0 542 176" fill="none" xmlns="http://www.w3.org/2000/svg">
<path fill-rule="evenodd" clip-rule="evenodd" d="M223 48.555V43.6791H243.69V76.5589H239.173V65.8993H238.993C237.006 73.0363 231.207 77.6435 224.806 77.6435C211.612 77.6435 204.204 67.443 204.204 44.3218C204.204 21.2005 211.612 11 224.806 11C237.095 11 242.608 19.0414 243.329 30.1532H237.547C237.547 22.3838 233.299 15.8725 224.806 15.8725C215.588 15.8725 209.986 23.4617 209.986 44.3286C209.986 65.1955 215.588 72.7813 224.806 72.7813C233.479 72.7813 238.268 65.0119 238.268 49.9287V48.5686L223 48.555ZM252.363 12.0609H258.145V58.4019C258.145 68.0686 262.302 72.7643 270.795 72.7643C279.288 72.7643 283.448 68.0686 283.448 58.4019V12.0609H289.23V58.4937C289.23 72.0434 282.631 77.6435 270.795 77.6435C258.958 77.6435 252.36 72.0434 252.36 58.4937L252.363 12.0609ZM319.593 12.0609H312.365L293.298 76.5589H299.434L304.675 57.7695H327.273L332.515 76.5589H338.661L319.593 12.0609ZM316.069 16.5763L326.008 52.8902H305.951L315.899 16.5763H316.069ZM343.63 12.0609H362.878C373.63 12.0609 379.596 18.205 379.596 28.2321C379.596 35.9981 376.534 42.9549 367.936 44.5802V44.7604C375.98 45.4846 378.691 50.0919 378.963 60.0272L379.143 67.0724C379.232 70.5984 379.596 74.0291 381.864 76.5589H375.082C373.722 74.3012 373.456 70.9588 373.381 67.5246L373.201 62.1047C372.841 50.7243 370.762 47.1099 360.371 47.1099H349.436V76.5589H343.654L343.63 12.0609ZM349.412 42.2341H359.354C368.48 42.2341 373.81 38.0756 373.81 29.5854C373.81 21.7276 370.467 16.9401 359.984 16.9401H349.412V42.2341ZM404.354 12.0609H388.81V76.5589H404.354C423.149 76.5589 427.758 65.3621 427.758 44.3116C427.758 23.261 423.149 12.0609 404.354 12.0609ZM403.993 71.6796H394.592L394.599 16.9401H403.993C416.646 16.9401 421.976 23.261 421.976 44.4C421.976 65.3587 416.646 71.6796 403.993 71.6796ZM437.697 12.0609H443.479V76.5589H437.697V12.0609ZM475.104 12.0609H467.876L448.809 76.5589H454.955L460.193 57.7695H482.784L488.026 76.5589H494.172L475.104 12.0609ZM471.58 16.5763L481.519 52.8902H461.475L471.4 16.5763H471.58ZM499.141 12.0609H506.91L531.579 68.2488H531.76V12.0609H537.542V76.5589H529.773L505.104 20.3709H504.923V76.5589H499.141V12.0609ZM222.476 89.4116H204.204L204.194 161.07H213.037V130.761H223.979C236.129 130.761 244.663 123.332 244.663 109.986C244.663 89.4116 228.7 89.4116 222.476 89.4116ZM223.591 123.532H213.047L213.037 96.6438H222.989C231.724 96.6438 235.438 101.771 235.438 109.592C235.438 119.112 230.017 123.532 223.591 123.532ZM252.492 89.4116H275.682C286.927 89.4116 294.049 96.0351 294.049 107.375C294.049 115.195 291.328 123.434 283.005 125.44V125.64C289.23 126.344 292.743 131.462 293.145 137.585L293.747 149.826C294.148 157.755 295.447 159.761 297.563 161.067H286.927C285.42 159.561 284.72 154.239 284.519 150.727L283.927 139.591C283.223 129.755 277.805 129.153 273.285 129.153H261.326V161.07H252.482L252.492 89.4116ZM261.336 121.927H270.07C275.291 121.927 284.829 121.927 284.829 108.079C284.829 101.054 280.111 96.6369 271.88 96.6369H261.336V121.927ZM326.685 162.481C346.464 162.481 349.776 143.311 349.776 125.246C349.776 107.174 346.464 88.0141 326.685 88.0141C306.906 88.0141 303.594 107.188 303.594 125.246C303.594 143.304 306.906 162.481 326.685 162.481ZM326.692 155.256C314.444 155.256 312.838 141.805 312.838 125.246C312.838 108.68 314.444 95.2395 326.692 95.2395C338.94 95.2395 340.545 108.687 340.545 125.246C340.545 141.805 338.94 155.256 326.692 155.256ZM391.541 140.496C391.541 153.24 388.327 162.475 373.568 162.475C361.623 162.475 356.803 154.746 356.803 146.116V140.207H365.235V145.426C365.235 151.247 367.545 155.263 373.47 155.263C381.5 155.263 382.704 150.044 382.704 140.207V89.4116H391.548L391.541 140.496ZM440.231 89.4116H403.187V161.047H441.438V153.226H412.02V127.534H438.625V119.714H412.02V97.232H440.231V89.4116ZM493.543 136.467C492.74 150.016 487.42 162.461 471.774 162.461C451.394 162.461 448.683 143.291 448.683 125.226C448.683 107.16 451.996 87.9937 471.774 87.9937C486.431 87.9937 492.556 96.2221 492.958 110.272H483.72C483.519 102.142 480.91 95.2191 471.774 95.2191C459.53 95.2191 457.917 108.667 457.917 125.226C457.917 141.785 459.526 155.236 471.774 155.236C482.516 155.236 484.019 145.198 484.322 136.467H493.543ZM514.716 161.07H523.559L523.549 97.2388H541.62V89.4184H496.743V97.2388H514.716V161.07Z" fill="url(#paint0_linear_29_247)"/>
<path fill-rule="evenodd" clip-rule="evenodd" d="M0 87.5853C0 39.2891 39.3157 0 87.6142 0C135.926 0 175.228 39.2993 175.228 87.592C175.228 135.885 135.923 175.177 87.6142 175.177C39.3055 175.177 0 135.881 0 87.5853ZM121.294 156.292C137.865 148.177 150.949 134.357 158.144 117.371C162.125 107.968 164.17 97.8601 164.157 87.6499V87.5989C164.157 85.5826 164.058 83.5832 163.905 81.5907C163.78 79.945 163.609 78.3062 163.378 76.6809C162.438 70.1973 160.68 63.8589 158.147 57.8167C158.069 57.6326 157.985 57.451 157.901 57.2689C157.845 57.1482 157.79 57.0274 157.735 56.9054C153.918 48.1706 148.495 40.2288 141.749 33.4918C140.848 32.5907 139.923 31.7135 138.984 30.86C124.9 18.0973 106.565 11.0365 87.556 11.0548C68.5466 11.073 50.2256 18.1689 36.1661 30.9586L35.9824 31.1321L35.7987 31.3055C35.3789 31.6853 34.9757 32.0734 34.5716 32.4624L34.5712 32.4628L34.4382 32.5907C34.3097 32.715 34.1794 32.837 34.0491 32.9591L34.049 32.9592L34.0486 32.9596L34.0485 32.9597C33.8617 33.1346 33.6748 33.3097 33.4926 33.4918C26.8188 40.1524 21.4378 47.9918 17.6222 56.613C17.5514 56.772 17.4786 56.93 17.4057 57.0879L17.4055 57.0883L17.4055 57.0884C17.2961 57.3254 17.1868 57.5624 17.0847 57.8031C9.20308 76.5079 9.06824 97.5749 16.7098 116.379C24.3514 135.183 39.1449 150.188 57.8426 158.098C58.8425 158.52 59.8425 158.911 60.8629 159.288C63.1939 160.156 65.5544 160.908 67.9444 161.543C85.7799 166.271 104.723 164.407 121.294 156.292ZM27.7852 79.4282C28.7716 81.3799 32.8124 83.8824 29.809 78.7958C29.7497 78.6972 29.5383 78.4082 29.2464 78.0092C28.1996 76.5784 26.1173 73.7321 26.2955 73.1685C27.9961 71.6248 34.6253 81.6247 34.3532 83.7737C34.3872 84.5863 34.8395 86.776 35.9994 86.776C36.5062 87.7961 42.1898 89.418 43.7306 89.418C44.438 89.418 46.7917 90.727 48.9992 92.4407C48.9141 91.4037 48.8665 90.3632 48.8665 89.3193C48.8679 87.7428 48.9656 86.1679 49.159 84.6033C48.1567 84.8042 47.9406 85.4509 47.7412 86.0477C47.6436 86.34 47.5499 86.6203 47.3699 86.8304C44.7782 89.3261 37.7034 74.4164 45.1047 74.4164C45.8097 74.3474 46.0852 74.5882 46.3809 74.8467C46.6244 75.0596 46.8817 75.2845 47.404 75.3582C47.9343 75.4271 48.2765 75.2667 48.7093 75.0637L48.7095 75.0637C48.8318 75.0063 48.9615 74.9455 49.1046 74.8856C48.1625 72.8455 50.6386 73.5255 51.8257 74.4299C53.3968 70.6283 55.5621 67.1003 58.2405 63.9778C60.3768 61.4947 63.3677 59.9039 66.6213 59.5202C67.6417 58.2179 68.6621 57.4155 69.9138 57.5311C70.0961 57.5476 70.0087 57.9266 69.9246 58.2913C69.8189 58.7497 69.7184 59.1855 70.1655 58.8503C70.2272 58.8028 70.3207 58.7398 70.4326 58.6645C70.9375 58.3244 71.8151 57.7332 71.8151 57.1876C71.8151 56.7685 71.3523 56.5419 70.8372 56.2897C70.7714 56.2575 70.7049 56.2249 70.6383 56.1914C69.8118 55.7732 70.1757 54.9231 71.2981 54.5899C71.56 54.5117 69.5975 53.2944 68.2369 54.0799C67.7908 54.3367 67.412 54.7131 67.0378 55.0851C66.3963 55.7226 65.7679 56.3471 64.8356 56.3342C64.9615 54.9979 67.3186 52.288 68.5465 51.914C69.3919 51.6492 70.4395 51.7523 71.4606 51.8527C73.2453 52.0284 74.9488 52.196 75.3491 50.3771C76.4545 50.8769 78.7504 50.4689 78.4102 49.3264C78.2674 48.677 77.179 47.8609 76.8014 47.8609C76.8014 46.8871 76.2622 47.4388 75.9074 47.8018C75.7283 47.985 75.5962 48.1202 75.6042 47.9867C75.7436 45.5726 71.9172 40.1663 70.8083 41.3632C70.5801 41.6095 70.333 41.8966 70.0813 42.1889L70.0812 42.1891L70.081 42.1893C69.0125 43.4305 67.8623 44.7666 67.7301 43.4815C67.6552 42.7355 67.3991 42.0191 66.9842 41.3945C66.5693 40.7699 66.008 40.2561 65.3492 39.8977C64.7355 39.4546 64.551 39.1028 64.4378 38.8868C64.2687 38.5641 64.2584 38.5445 63.2132 38.9763C62.5052 39.2683 61.7221 39.1088 60.98 38.9576C60.0892 38.7762 59.2576 38.6068 58.6861 39.2449C58.0738 39.9249 57.4378 41.965 58.4174 42.4309C59.3966 42.8841 59.3849 43.9519 59.3748 44.8675C59.3698 45.3257 59.3651 45.7458 59.4854 46.0316C60.1282 47.5651 58.948 47.4631 58.2881 47.0823C57.1827 46.4397 58.2099 49.7684 58.7065 50.4145C59.2643 51.1387 57.5126 51.6419 56.9514 51.0639C56.8112 50.9199 56.8058 50.4429 56.7994 49.8846C56.7892 48.9934 56.7767 47.895 56.2099 47.6127C55.8967 47.4567 55.5371 47.4421 55.1587 47.4267C54.4238 47.3968 53.6183 47.3641 52.9447 46.2867C52.4565 45.5053 49.9712 45.166 48.0088 44.8981H48.0088L48.0086 44.8981C47.5374 44.8338 47.0963 44.7736 46.7203 44.7124C43.8632 44.2466 43.6591 38.235 45.7781 37.7998C46.5061 37.6381 47.2202 37.4198 47.9142 37.147C48.1632 36.6412 48.522 36.7238 48.8833 36.8069C49.3113 36.9054 49.7428 37.0046 49.9992 36.1269C50.0749 35.8833 50.1988 35.6573 50.3637 35.4626C50.5286 35.2679 50.7311 35.1083 50.959 34.9935C51.1869 34.8786 51.4355 34.8108 51.6902 34.794C51.9449 34.7773 52.2003 34.812 52.4413 34.8961C52.3549 35.4857 51.9079 35.8538 51.5008 36.189C51.0581 36.5535 50.6625 36.8792 50.8291 37.4088C51.0045 37.9646 52.2285 37.6628 53.2824 37.403L53.2824 37.403C53.8017 37.275 54.2797 37.1572 54.5705 37.1572C54.5705 37.2286 55.931 37.4088 56.3086 37.4088C56.1092 37.1438 55.5522 36.8909 54.9628 36.6233C53.7825 36.0874 52.4725 35.4926 53.6454 34.624C53.6454 34.4654 53.9126 34.3729 54.2387 34.26C54.6957 34.1017 55.2683 33.9034 55.3834 33.4272C55.5297 32.7947 55.7235 30.9858 55.3664 30.86C55.1138 30.7685 54.8595 30.786 54.5635 30.8063C54.2656 30.8267 53.9256 30.8501 53.5025 30.7682C53.5025 30.4962 52.4821 30.2786 51.8903 30.4962C51.8903 30.5654 51.9484 30.6813 52.0098 30.8036C52.1265 31.0363 52.2547 31.2919 52.0161 31.2919C52.0161 32.5227 51.8733 33.7196 50.2781 33.9542C50.2611 33.1042 49.8087 31.4551 48.9414 31.1661C48.9414 32.6195 47.1926 31.5449 45.5723 30.5492C44.3459 29.7955 43.1931 29.0871 42.9278 29.5544C42.6827 29.9836 42.6875 30.1758 42.6923 30.3703C42.6974 30.5779 42.7026 30.788 42.404 31.2919C42.2144 31.2919 41.9527 31.2592 41.6665 31.2236L41.6664 31.2236C41.4138 31.1921 41.142 31.1582 40.8837 31.1423L40.3088 31.6251C40.6796 31.7271 40.8122 31.9651 40.683 32.4887C40.4449 33.1382 39.4551 33.349 38.3361 33.3524L38.2204 33.4646L38.1627 33.5202C38.1047 33.5763 38.0471 33.6319 37.9858 33.6856C37.7004 33.9381 37.4187 34.2131 37.1283 34.4966L37.1282 34.4967L37.1276 34.4973C37.0271 34.5953 36.9256 34.6945 36.8225 34.794L36.6967 34.9165L36.2681 35.3211L36.1659 35.4169C36.0295 35.5447 35.8997 35.6663 35.7851 35.7835C29.3927 42.1679 24.239 49.681 20.5847 57.9425C20.545 58.034 20.5044 58.1203 20.4629 58.2084C20.4227 58.2938 20.3816 58.3809 20.3398 58.4763C20.3065 58.5521 20.2696 58.6326 20.2323 58.7139L20.2322 58.7143L20.2321 58.7143L20.2317 58.7154L20.2314 58.7159C20.1737 58.8418 20.1151 58.9696 20.0677 59.0849C19.5133 60.394 19.0031 61.7201 18.5269 63.0529C19.3724 65.1505 20.8657 66.8525 22.1319 68.2956C23.3616 69.6973 24.3771 70.8548 24.3771 71.8934C24.3601 73.3079 26.3465 77.4187 27.7852 79.4282ZM160.936 87.5479C160.936 85.8172 160.854 83.9471 160.691 81.8322C160.691 81.7607 160.684 81.6893 160.676 81.6179C160.674 81.5949 160.672 81.572 160.67 81.549C160.667 81.5244 160.665 81.4997 160.664 81.4751C160.102 80.9898 159.746 80.3094 159.667 79.5715C159.588 78.8337 159.792 78.0933 160.239 77.5003L160.188 77.1263C159.746 74.0664 159.111 71.0376 158.286 68.058C158.079 67.3032 157.858 66.5551 157.63 65.8139H157.525C155.62 65.8139 153.783 64.141 154.123 62.6381C154.322 61.7281 154.829 61.2915 155.33 60.8606C155.472 60.7377 155.615 60.6153 155.749 60.4824C155.562 60.0064 155.368 59.5338 155.171 59.0679C155.12 58.9455 155.055 58.8027 154.984 58.6531L154.776 58.1941C151.121 49.8236 145.93 42.2118 139.47 35.7529C138.63 34.9131 137.739 34.0528 136.817 33.23C136.004 32.4921 135.175 31.7781 134.334 31.0777C133.509 31.251 132.679 31.4433 131.99 31.603C131.165 31.7943 130.541 31.9388 130.369 31.9481C129.15 32.0353 128.489 32.6379 127.642 33.4094L127.642 33.4096L127.641 33.4106C127.431 33.6014 127.211 33.8025 126.967 34.0086C126.967 33.9916 123.29 37.0518 125.1 37.0518C124.945 38.343 123.122 38.8614 121.549 39.3086C120.566 39.5879 119.681 39.8395 119.362 40.2343C118.342 41.4924 121.978 44.3146 123.199 43.5495C123.488 43.3659 125.736 43.6141 125.865 45.5896C125.916 46.3479 125.988 47.4937 124.522 46.7355C124.422 46.6628 124.4 46.3625 124.376 46.0278C124.352 45.6892 124.325 45.3154 124.212 45.1068C123.277 43.9915 118.995 46.7423 122.658 48.4526C122.294 49.5746 119.916 50.5641 118.654 50.3193C118.19 50.2264 118.191 50.481 118.193 50.7859C118.195 51.1507 118.198 51.5875 117.403 51.5875C116.804 51.5875 115.729 53.0122 116.916 52.9782C117.984 52.9476 116.321 54.7769 114.927 53.5018C114.712 53.308 114.246 53.4304 114.586 53.9337C115.607 55.593 113.27 54.5151 112.583 54.1377C111.78 53.6926 112.769 55.0492 113.131 55.546L113.131 55.5461L113.131 55.5462L113.148 55.5692C113.261 55.7268 113.471 55.9112 113.711 56.1222L113.711 56.1222C114.505 56.8214 115.63 57.8113 114.682 59.0781C114.627 59.1525 114.601 59.2442 114.609 59.3363C114.617 59.4283 114.658 59.5144 114.724 59.5784C114.791 59.6425 114.878 59.6801 114.971 59.6844C115.063 59.6887 115.154 59.6594 115.226 59.6018C115.226 60.7612 113.797 60.5606 112.964 60.3974C113.325 59.7174 113.052 59.3502 112.168 59.3298C112.168 59.714 111.869 59.9724 111.447 60.1254C113.033 60.6909 114.495 61.5594 115.75 62.6823C115.855 62.7741 115.957 62.8692 116.059 62.9644L116.059 62.9645C116.293 62.4803 116.496 62.0152 116.675 61.6041C117.019 60.8175 117.276 60.2286 117.495 60.0812C118.631 59.3128 121.42 58.9149 122.702 58.9149C123.869 58.9149 128.569 65.1237 128.569 65.9533C129.566 65.1951 129.692 64.5422 129.457 63.784C129.239 63.0592 129.574 63.1992 129.997 63.3754C130.345 63.5207 130.752 63.6907 130.957 63.4202C130.705 63.4202 130.576 63.2279 130.434 63.015C130.219 62.6936 129.973 62.3249 129.222 62.4987C129.133 62.1499 129.09 61.791 129.093 61.4311C128.201 61.5827 127.816 60.9518 127.453 60.357C127.125 59.8183 126.814 59.3093 126.161 59.4386C126.101 59.2052 125.955 59.0334 125.816 58.8705C125.578 58.5917 125.363 58.3386 125.637 57.8473C126.034 57.139 126.953 58.0675 127.841 58.9639L127.841 58.9639C128.474 59.6038 129.091 60.2274 129.491 60.2274C129.611 60.447 130.053 60.5931 130.461 60.728C130.861 60.8604 131.229 60.9821 131.229 61.1523C131.827 61.3609 131.742 62.166 131.67 62.8473C131.648 63.0541 131.627 63.2495 131.627 63.4134C132.118 63.4134 132.168 63.5961 132.246 63.8778C132.283 64.0119 132.327 64.1683 132.426 64.3382C132.866 64.554 133.027 65.1663 133.188 65.779C133.417 66.6532 133.646 67.5281 134.688 67.2522C136.151 66.8646 136.11 66.5449 135.198 63.7058C134.824 62.5429 137.542 62.8047 137.749 63.5392C138.703 66.9628 142.442 66.9368 144.657 66.9214C145.484 66.9157 146.099 66.9114 146.276 67.089C146.929 67.7418 146.617 73.7737 142.943 73.7295C143.215 74.634 154.123 93.4506 156.525 93.0867C156.864 93.0376 157.396 92.5195 158.127 91.807C158.862 91.0903 159.8 90.1769 160.946 89.3465C160.946 89.0558 160.951 88.766 160.956 88.4765L160.956 88.4752V88.474C160.962 88.1854 160.967 87.8972 160.967 87.6091C160.936 87.6091 160.936 87.5834 160.936 87.5556L160.936 87.5479ZM112.567 47.804C112.345 47.6097 112.049 47.3495 111.621 46.9225C111.061 46.371 111.076 45.9515 111.096 45.3828V45.3828C111.1 45.2502 111.105 45.1095 111.104 44.9572C110.989 44.1892 111.279 44.1964 111.661 44.2059C112.062 44.2159 112.564 44.2283 112.804 43.3489C113.611 43.3489 113.118 44.2158 112.828 44.7251C112.734 44.8902 112.661 45.0177 112.661 45.066C113.24 45.0561 113.489 44.8499 113.737 44.6436C113.917 44.4948 114.096 44.3459 114.399 44.2704C114.346 44.5916 114.183 44.8202 114.041 45.0173C113.792 45.3645 113.613 45.6137 114.236 46.0997C114.729 46.4975 115.287 46.9871 115.069 47.5991C115.777 47.5991 115.818 48.387 115.855 49.1065C115.885 49.6745 115.912 50.2 116.263 50.2615C116.416 50.2816 116.446 50.2221 116.506 50.1041C116.567 49.9834 116.658 49.8015 116.944 49.5814C117.508 49.1462 117.576 50.3771 116.944 50.3771C116.311 51.6249 114.348 52.7368 113.512 51.914C113.229 51.6367 113.141 51.3548 113.073 51.1381C112.977 50.8287 112.922 50.6523 112.399 50.8123C111.185 51.1931 111.689 49.6324 112.165 49.1836C112.189 49.1607 112.313 49.1939 112.476 49.2372C112.944 49.3615 113.727 49.5696 113.359 48.7858C113.117 48.2873 112.96 48.1498 112.567 47.804ZM126.353 65.965C126.468 66.0344 126.586 66.1058 126.702 66.1437C127.376 66.3572 127.455 66.2842 127.641 66.112C127.74 66.0209 127.868 65.9021 128.13 65.7833C128.13 67.2472 127.573 66.9762 126.81 66.605C126.44 66.4253 126.023 66.2222 125.596 66.1811C125.744 65.597 126.036 65.7734 126.353 65.965ZM149.042 125.633C151.494 122.889 149.77 111.774 149.297 111.302C149.068 111.073 150.243 110.148 151.873 108.863C154.002 107.186 156.908 104.896 158.48 102.747C159.749 101.009 159.724 97.5112 159.711 95.6096C159.709 95.4315 159.708 95.2674 159.708 95.12C159.708 94.0978 157.859 94.9817 156.279 95.737C155.2 96.2529 154.246 96.7088 154.093 96.4563C151.648 92.4206 149.601 88.8154 147.823 85.6836C142.031 75.4829 139.092 70.3056 134.545 71.635C134.01 71.793 133.421 72.0742 132.841 72.3512C131.973 72.7657 131.126 73.1705 130.508 73.1379C127.765 73.1379 126.555 71.3325 125.487 69.7396C124.645 68.4824 123.891 67.3576 122.542 67.3576C121.584 67.357 120.627 67.4115 119.675 67.5208C124.025 73.9608 126.355 81.5518 126.365 89.3227C126.371 94.1888 125.457 99.012 123.671 103.539C123.703 104.277 123.31 105.419 122.905 106.595C122.787 106.937 122.669 107.281 122.559 107.619C122.151 108.874 124.909 112.505 125.093 112.648C126.454 113.719 126.869 121.726 124.695 123.546C122.207 125.626 128.25 138.858 130.296 143.34C130.664 144.146 130.903 144.669 130.94 144.793C131.039 145.133 132.049 145.089 133.321 144.919C135.468 143.197 137.518 141.357 139.46 139.407C141.152 137.721 142.749 135.965 144.253 134.141C145.102 132.274 145.731 130.315 146.127 128.302C146.3 127.33 147.534 126.591 148.354 126.099C148.679 125.905 148.938 125.749 149.042 125.633ZM122.392 62.4715C122.627 63.4134 122.79 63.0121 122.79 62.1995C123.335 62.1995 123.576 64.1886 121.995 64.1716C121.396 64.1716 121.614 62.4715 122.392 62.4715ZM110.759 48.0298C110.204 49.5813 109.547 51.4154 107.74 50.6627C107.088 50.3883 107.32 49.9619 107.586 49.476C107.705 49.2574 107.831 49.0268 107.886 48.7926C107.086 48.5817 107.774 48.3618 108.453 48.1447C108.88 48.0084 109.303 47.8731 109.352 47.7419C109.251 47.741 109.152 47.7156 109.062 47.6679C108.973 47.6202 108.897 47.5517 108.84 47.4681C108.783 47.3846 108.748 47.2885 108.736 47.1882C108.725 47.0878 108.737 46.9862 108.774 46.8919C108.872 46.6759 109.001 46.8078 109.16 46.9714C109.325 47.14 109.522 47.3424 109.753 47.2319C109.884 47.2171 110.046 47.1571 110.209 47.0969C110.717 46.9085 111.229 46.7187 110.801 47.9119L110.759 48.0298ZM77.4034 148.418C79.0191 146.806 80.3728 143.515 80.4272 142.41C80.0531 140.9 81.7877 140.455 82.5258 140.455C82.9839 140.455 83.1746 139.351 83.4025 138.031C83.76 135.961 84.2093 133.359 85.9271 133.654C87.8556 133.994 93.046 133.287 94.8419 127.456C87.7781 128.807 80.4772 128.159 73.7621 125.585C67.047 123.01 61.1846 118.612 56.8358 112.886C56.7269 114.409 57.0194 116.33 59.4446 118.489C60.0329 119.012 60.1612 119.772 60.3073 120.638C60.5523 122.089 60.8473 123.837 63.4445 125.256C66.2234 126.776 64.9955 140.098 61.9377 146.514C61.335 147.779 61.8347 149.227 62.2348 150.386C62.512 151.189 62.7413 151.854 62.5227 152.223C61.8249 153.364 61.3161 154.611 61.016 155.915L61.9751 156.276C64.0941 157.068 66.288 157.768 68.5022 158.363C68.7301 157.343 69.0736 156.286 69.6723 155.572C72.1604 152.61 73.8828 151.283 75.3155 150.178C76.0685 149.598 76.7414 149.08 77.4034 148.418ZM55.9242 83.0562C54.9647 87.8853 55.1206 92.8696 56.38 97.6294C56.5365 98.2188 56.7088 98.8002 56.897 99.3737C57.496 101.208 58.2563 102.985 59.1691 104.685C61.3253 108.594 64.2689 112.015 67.814 114.73C71.359 117.445 75.4287 119.396 79.766 120.46C84.1033 121.524 88.6141 121.677 93.0137 120.911C97.4133 120.144 101.606 118.474 105.328 116.006C109.049 113.538 112.219 110.326 114.636 106.572C117.053 102.818 118.666 98.6037 119.372 94.1954C120.078 89.7871 119.862 85.2803 118.738 80.9595C117.614 76.6387 115.606 72.5978 112.842 69.0917C112.573 68.7516 112.304 68.4286 112.025 68.1056C111.838 67.8933 111.638 67.6923 111.427 67.5038C110.617 66.7777 109.64 66.2636 108.583 66.0077C108.066 65.8792 107.535 65.813 107.002 65.8105C105.731 65.8123 104.488 66.1785 103.42 66.8657C102.352 67.553 101.503 68.5323 100.975 69.6873C100.447 70.8424 100.262 72.1247 100.442 73.3818C100.621 74.639 101.158 75.8183 101.988 76.7795C104.383 79.5483 105.934 82.9451 106.458 86.5678C106.983 90.1906 106.457 93.8876 104.945 97.2212C103.433 100.555 100.997 103.386 97.9254 105.378C94.854 107.371 91.2757 108.443 87.6142 108.466C87.2056 108.466 86.8053 108.436 86.3961 108.405L86.2536 108.394C82.7237 108.125 79.3377 106.882 76.4716 104.805C73.6056 102.727 71.3717 99.8961 70.0182 96.626C68.6647 93.3558 68.2445 89.7746 68.8043 86.2801C69.364 82.7856 70.8819 79.5146 73.1892 76.8305C73.7572 76.1701 74.1894 75.4043 74.4613 74.5769C74.7332 73.7495 74.8394 72.8767 74.7739 72.0083C74.7084 71.1398 74.4724 70.2928 74.0794 69.5155C73.6864 68.7383 73.1441 68.046 72.4835 67.4783C71.8228 66.9105 71.0568 66.4784 70.2292 66.2066C69.4015 65.9348 68.5284 65.8286 67.6597 65.8941C66.7909 65.9597 65.9436 66.1956 65.1661 66.5884C64.3886 66.9813 63.6961 67.5234 63.1282 68.1838C59.6082 72.2924 57.1715 77.2155 56.0399 82.5054L55.9242 83.0562ZM82.9243 55.4098C84.1681 54.1664 85.8551 53.4678 87.6142 53.4678C89.3732 53.4678 91.0602 54.1664 92.3041 55.4098C93.5479 56.6533 94.2467 58.3397 94.2467 60.0982V84.7869C94.2467 86.5454 93.5479 88.2318 92.3041 89.4753C91.0602 90.7187 89.3732 91.4172 87.6142 91.4172C85.8551 91.4172 84.1681 90.7187 82.9243 89.4753C81.6804 88.2318 80.9816 86.5454 80.9816 84.7869V60.0982C80.9816 58.3397 81.6804 56.6533 82.9243 55.4098Z" fill="url(#paint1_linear_29_247)"/>
<defs>
<linearGradient id="paint0_linear_29_247" x1="434.5" y1="-5.28086" x2="325.77" y2="218.077" gradientUnits="userSpaceOnUse">
<stop stop-color="#00FF00"/>
<stop offset="1" stop-color="#3C8273"/>
</linearGradient>
<linearGradient id="paint1_linear_29_247" x1="138.5" y1="10" x2="49" y2="159" gradientUnits="userSpaceOnUse">
<stop stop-color="#24B544"/>
<stop offset="1" stop-color="#4A658D"/>
</linearGradient>
</defs>
</svg>
